# Blender v2.73 (sub 0) OBJ File: ''
# www.blender.org
mtllib plane.mtl
o Plane
v -7.992261 0.000000 7.992261
v 7.992261 0.000000 7.992261
v -7.992261 0.000000 -7.992261
v 7.992261 0.000000 -7.992261
vt 0.999900 0.000100
vt 0.999900 0.999900
vt 0.000100 0.999900
vt 0.000100 0.000100
vn 0.000000 1.000000 0.000000
usemtl None
s off
f 2/1/1 4/2/1 3/3/1
f 1/4/1 2/1/1 3/3/1
